Crash course in Open Targets Part 1: Browsing and Querying Target-Disease Associations - Clare's Blog
…
## Execute the query
variables <- list(efoId = 'EFO_0001645')
result <- fromJSON(otp_cli$exec(otp_qry$queries$simple_query, variables, flatten = TRUE))$data$disease

Note that the output will be nested, so you may want to reshape the data a bit:

top_targets <- 
  as.data.frame(result$associatedTargets$rows) %>% 
  flatten() %>% 
  rename(overallScore = score) %>% 
  tidyr::unnest(datatypeScores) %>% 
  tidyr::pivot_wider(names_from = "id", values_from = "score")

## # A tibble: 25 x 7
##    overallScore target.id    target.approvedName           known_drug literature
##           <dbl> <chr>        <chr>                              <dbl>      <dbl>
##  1        0.723 ENSG0000006… guanylate cyclase 1 soluble …      0.995     0.0304
##  2        0.717 ENSG0000013… apolipoprotein E                  NA         0.948 
##  3        0.699 ENSG0000016… proprotein convertase subtil…      0.937     0.937 
##  4        0.693 ENSG0000007… LDL receptor related protein…     NA         0.518 
##  5        0.668 ENSG0000017… phosphodiesterase 3A               0.970     0.0469
##  6        0.637 ENSG0000011… 3-hydroxy-3-methylglutaryl-C…      0.998     0.734 
##  7        0.636 ENSG0000012… plasminogen                        0.878     0.382 
##  8        0.619 ENSG0000015… angiotensin I converting enz…      0.974     0.892 
##  9        0.615 ENSG0000016… purinergic receptor P2Y12          0.998     0.264 
## 10        0.614 ENSG0000007… prostaglandin-endoperoxide s…      0.992     0.348 
## # … with 15 more rows, and 2 more variables: genetic_association <dbl>,
## #   animal_model <dbl>
…
